{
  "tests": [
    {
      "intro": "Code as fast as you can! Your task is to write a function maskify, which changes all but the last four characters into '#'.\nTo test your code, click Go.",
      "initial": "function maskify(i) {\n\n    // i will be string\n    // mask the string by changing all but the last four characters into '#' and return it.\n    // if string is smaller then four then just return the string as is\n\n    \n    \n}",
      "functionName": "maskify",
      "cases": [
        {
          "in": "'4556364607935616'",
          "exp": "############5616"
        },
        {
          "in": "'64607935616'",
          "exp": "#######5616"
        },
        {
          "in": "'1'",
          "exp": "1"
        },
        {
          "in": "''",
          "exp": ""
        },
        {
          "in": "'Skippy'",
          "exp": "##ippy"
        },
        {
          "in": "'Nananananananananananananananana Batman!'",
          "exp": "####################################man!"
        }
      ],
      "outtro": "SUCCESS! All tests passed. Well done!"
    }
  ]
}